C:\ValiItTeooriaKoodiN2ited\EclipseProjects\18_RestService_Persons\src\ee\bcs\person\PersonResource.java
C:\ValiItTeooriaKoodiN2ited\EclipseProjects\18_RestService_Persons\src\ee\bcs\person\Gender.java
C:\ValiItTeooriaKoodiN2ited\EclipseProjects\18_RestService_Persons\src\ee\bcs\person\Person.java
